%YAML 1.1
%TAG !u! tag:unity3d.com,2011:
--- !u!114 &11400000
MonoBehaviour:
  m_ObjectHideFlags: 0
  m_CorrespondingSourceObject: {fileID: 0}
  m_PrefabInstance: {fileID: 0}
  m_PrefabAsset: {fileID: 0}
  m_GameObject: {fileID: 0}
  m_Enabled: 1
  m_EditorHideFlags: 0
  m_Script: {fileID: 11500000, guid: 95e66c6366d904e98bc83428217d4fd7, type: 3}
  m_Name: CapsuleRotation
  m_EditorClassIdentifier: 
  _data:
    _json: '{"graph":{"variables":{"Kind":"Flow","collection":{"$content":[],"$version":"A"},"$version":"A"},"controlInputDefinitions":[],"controlOutputDefinitions":[],"valueInputDefinitions":[],"valueOutputDefinitions":[],"title":null,"summary":null,"pan":{"x":0.0,"y":15.0},"zoom":1.0,"elements":[{"coroutine":false,"defaultValues":{},"position":{"x":-188.0,"y":-122.0},"guid":"6a377534-9682-43f1-b8fa-5fbbe61a060c","$version":"A","$type":"Unity.VisualScripting.Update","$id":"9"},{"chainable":false,"member":{"name":"Magnitude","parameterTypes":["UnityEngine.Vector3"],"targetType":"UnityEngine.Vector3","targetTypeName":"UnityEngine.Vector3","$version":"A"},"defaultValues":{"%vector":{"x":0.0,"y":0.0,"z":0.0,"$type":"UnityEngine.Vector3"}},"position":{"x":54.0,"y":-175.0},"guid":"bfcc4cf0-79f8-41a7-8a74-b5899941fbde","$version":"A","$type":"Unity.VisualScripting.InvokeMember","$id":"11"},{"chainable":false,"member":{"name":"Rotate","parameterTypes":["UnityEngine.Vector3"],"targetType":"UnityEngine.Transform","targetTypeName":"UnityEngine.Transform","$version":"A"},"defaultValues":{"target":null,"%eulers":{"x":0.0,"y":0.0,"z":0.0,"$type":"UnityEngine.Vector3"}},"position":{"x":401.0,"y":-211.0},"guid":"edc383ca-fe7e-43d0-92c1-5875339de53e","$version":"A","$type":"Unity.VisualScripting.InvokeMember","$id":"14"},{"specifyFallback":false,"kind":"Object","defaultValues":{"name":{"$content":"RotationAxis","$type":"System.String"},"object":{"$content":0,"$type":"UnityEngine.Object"}},"position":{"x":-238.0,"y":54.0},"guid":"3fa6e4ab-502e-4233-a88f-5eb1b3be21ed","$version":"A","$type":"Unity.VisualScripting.GetVariable","$id":"17"},{"specifyFallback":false,"kind":"Object","defaultValues":{"name":{"$content":"RotationAxis","$type":"System.String"},"object":{"$content":1,"$type":"UnityEngine.Object"}},"position":{"x":-14.0,"y":126.0},"guid":"c9c576d9-e560-4928-81d1-3c399bd4c8ae","$version":"A","$type":"Unity.VisualScripting.GetVariable","$id":"19"},{"defaultValues":{},"position":{"x":229.0,"y":-75.0},"guid":"5e7b1a2d-d073-4d04-b465-714e56009169","$version":"A","$type":"Unity.VisualScripting.GenericMultiply","$id":"21"},{"defaultValues":{},"position":{"x":218.0,"y":143.0},"guid":"eb047640-33f6-4abc-b3a1-edf479ebeb53","$version":"A","$type":"Unity.VisualScripting.GenericMultiply","$id":"23"},{"member":{"name":"deltaTime","parameterTypes":null,"targetType":"UnityEngine.Time","targetTypeName":"UnityEngine.Time","$version":"A"},"defaultValues":{},"position":{"x":-186.0,"y":285.0},"guid":"5b766d04-2eab-4a3c-9b6a-1d11c0529c28","$version":"A","$type":"Unity.VisualScripting.GetMember","$id":"25"},{"sourceUnit":{"$ref":"9"},"sourceKey":"trigger","destinationUnit":{"$ref":"11"},"destinationKey":"enter","guid":"88db23d2-ac40-4366-9109-d4ee3681ffbc","$type":"Unity.VisualScripting.ControlConnection"},{"sourceUnit":{"$ref":"11"},"sourceKey":"exit","destinationUnit":{"$ref":"14"},"destinationKey":"enter","guid":"1de2404d-fcce-4ef5-a2d0-5447827f7373","$type":"Unity.VisualScripting.ControlConnection"},{"sourceUnit":{"$ref":"17"},"sourceKey":"value","destinationUnit":{"$ref":"11"},"destinationKey":"%vector","guid":"98d0e959-da98-4400-ad80-f5f0a6aed9c9","$type":"Unity.VisualScripting.ValueConnection"},{"sourceUnit":{"$ref":"11"},"sourceKey":"result","destinationUnit":{"$ref":"21"},"destinationKey":"a","guid":"e94dd178-c7b8-40b5-95c9-84239e710f27","$type":"Unity.VisualScripting.ValueConnection"},{"sourceUnit":{"$ref":"21"},"sourceKey":"product","destinationUnit":{"$ref":"14"},"destinationKey":"%eulers","guid":"a2269840-6ab2-4e40-b20f-83ee2fe89e1b","$type":"Unity.VisualScripting.ValueConnection"},{"sourceUnit":{"$ref":"19"},"sourceKey":"value","destinationUnit":{"$ref":"23"},"destinationKey":"a","guid":"624ede8b-d717-4878-93e8-55f234d912f3","$type":"Unity.VisualScripting.ValueConnection"},{"sourceUnit":{"$ref":"23"},"sourceKey":"product","destinationUnit":{"$ref":"21"},"destinationKey":"b","guid":"6f7951d0-d8d7-4c2c-b479-f25882daf721","$type":"Unity.VisualScripting.ValueConnection"},{"sourceUnit":{"$ref":"25"},"sourceKey":"value","destinationUnit":{"$ref":"23"},"destinationKey":"b","guid":"6f507f2c-92ce-484e-9819-6db6e28d9011","$type":"Unity.VisualScripting.ValueConnection"}],"$version":"A"}}'
    _objectReferences:
    - {fileID: 702482056620109276, guid: eab95aad050a0ee469cd82578fd42efc, type: 3}
    - {fileID: 702482056620109276, guid: eab95aad050a0ee469cd82578fd42efc, type: 3}
