%YAML 1.1
%TAG !u! tag:unity3d.com,2011:
--- !u!162 &1
EditorUserSettings:
  m_ObjectHideFlags: 0
  serializedVersion: 4
  m_ConfigSettings:
    RecentlyUsedSceneGuid-0:
      value: 5a5757560101590a5d0c0e24427b5d44434e4c7a7b7a23677f2b4565b7b5353a
      flags: 0
    RecentlyUsedSceneGuid-1:
      value: 0507520556050c09085f5c7b43205944471641732f2b77617f784531e0b0616f
      flags: 0
    RecentlyUsedSceneGuid-2:
      value: 5757510251050d585f5c587316740a44434f4f7c742c74667a7e4932b0b36468
      flags: 0
    RecentlyUsedSceneGuid-3:
      value: 0207575757005e5d5b0b5a7514745a4440154d7e742c25697a2d1835e0b06d61
      flags: 0
    RecentlyUsedSceneGuid-4:
      value: 570156575d545e0b080a0e7349715944134e4b7e2e7c22347b7c4b6ab1b5666f
      flags: 0
    RecentlyUsedSceneGuid-5:
      value: 5a5751035c020d0b0e5a5f7349275e44121541297f7076322c7f4e36b3b76d3b
      flags: 0
    vcSharedLogLevel:
      value: 0d5e400f0650
      flags: 0
  m_VCAutomaticAdd: 1
  m_VCDebugCom: 0
  m_VCDebugCmd: 0
  m_VCDebugOut: 0
  m_SemanticMergeMode: 2
  m_DesiredImportWorkerCount: 4
  m_StandbyImportWorkerCount: 2
  m_IdleImportWorkerShutdownDelay: 60000
  m_VCShowFailedCheckout: 1
  m_VCOverwriteFailedCheckoutAssets: 1
  m_VCProjectOverlayIcons: 1
  m_VCHierarchyOverlayIcons: 1
  m_VCOtherOverlayIcons: 1
  m_VCAllowAsyncUpdate: 1
  m_ArtifactGarbageCollection: 1
