%YAML 1.1
%TAG !u! tag:unity3d.com,2011:
--- !u!162 &1
EditorUserSettings:
  m_ObjectHideFlags: 0
  serializedVersion: 4
  m_ConfigSettings:
    RecentlyUsedSceneGuid-0:
      value: 5a5757560101590a5d0c0e24427b5d44434e4c7a7b7a23677f2b4565b7b5353a
      flags: 0
    RecentlyUsedSceneGuid-1:
      value: 065001020404085f0c0f097240700c444216412b782b7f337f2f1867b3e2606d
      flags: 0
    RecentlyUsedSceneGuid-2:
      value: 545400515703085a540c0e204827064445161e7c7b2a24617e2d4d31e4e2673a
      flags: 0
    RecentlyUsedSceneGuid-3:
      value: 075450555d03080c545f5924137b5d4447154d2c2d2b72682e281837b6e26761
      flags: 0
    RecentlyUsedSceneGuid-4:
      value: 530104565505590b5d5e5c7240730f404647487a7c7876607d794d63b2b06468
      flags: 0
    RecentlyUsedSceneGuid-5:
      value: 0155525304535c58550855721326094413161a2c2a782333292d486bbab1603a
      flags: 0
    RecentlyUsedSceneGuid-6:
      value: 5408065e54510b0a5d580e7716730c4413154a78742b71602e7f1c37e6b73568
      flags: 0
    RecentlyUsedSceneGuid-7:
      value: 570855005351515f5a5d5c2040750b444f4f4172797d7f33752b4c37b7b7306a
      flags: 0
    vcSharedLogLevel:
      value: 0d5e400f0650
      flags: 0
  m_VCAutomaticAdd: 1
  m_VCDebugCom: 0
  m_VCDebugCmd: 0
  m_VCDebugOut: 0
  m_SemanticMergeMode: 2
  m_DesiredImportWorkerCount: 4
  m_StandbyImportWorkerCount: 2
  m_IdleImportWorkerShutdownDelay: 60000
  m_VCShowFailedCheckout: 1
  m_VCOverwriteFailedCheckoutAssets: 1
  m_VCProjectOverlayIcons: 1
  m_VCHierarchyOverlayIcons: 1
  m_VCOtherOverlayIcons: 1
  m_VCAllowAsyncUpdate: 1
  m_ArtifactGarbageCollection: 1
